HLTRMakerAlg.MKTool.Serialiser          0   0     DEBUG xAOD::TrigCompositeContainer#EgammaCaloDecisions Fragment size :176 bytes
HLTRMakerAlg.MKTool.Serialiser          0   0     DEBUG xAOD::TrigCompositeAuxContainer#EgammaCaloDecisionsAux. Fragment size :376 bytes
HLTRMakerAlg.MKTool.Serialiser          0   0     DEBUG    Fragment size including 344 bytes from 2x DynAux : 720
HLTRMakerAlg.MKTool.Serialiser          0   0     DEBUG xAOD::TrigCompositeContainer#ElectronL2Decisions Fragment size :176 bytes
HLTRMakerAlg.MKTool.Serialiser          0   0     DEBUG xAOD::TrigCompositeAuxContainer#ElectronL2DecisionsAux. Fragment size :724 bytes
HLTRMakerAlg.MKTool.Serialiser          0   0     DEBUG    Fragment size including 456 bytes from 2x DynAux : 1180
HLTRMakerAlg.MKTool.Serialiser          0   0     DEBUG xAOD::TrigEMClusterContainer#HLT_xAOD__TrigEMClusterContainer_L2CaloClusters Fragment size :204 bytes
HLTRMakerAlg.MKTool.Serialiser          0   0     DEBUG xAOD::TrigEMClusterAuxContainer#HLT_xAOD__TrigEMClusterContainer_L2CaloClustersAux. Fragment size :804 bytes
HLTRMakerAlg.MKTool.Serialiser          0   0     DEBUG    Fragment size including 88 bytes from 1x DynAux : 892
HLTRMakerAlg.MKTool.Serialiser          0   0     DEBUG xAOD::TrigElectronContainer#HLT_xAOD__TrigElectronContainer_L2ElectronFex Fragment size :196 bytes
HLTRMakerAlg.MKTool.Serialiser          0   0     DEBUG xAOD::TrigElectronAuxContainer#HLT_xAOD__TrigElectronContainer_L2ElectronFexAux. Fragment size :1116 bytes
HLTRMakerAlg.MKTool.Serialiser          0   0     DEBUG    Fragment size including 1616 bytes from 14x DynAux : 2732
HLTRMakerAlg.MKTool.Serialiser          1   0     DEBUG xAOD::TrigCompositeContainer#EgammaCaloDecisions Fragment size :176 bytes
HLTRMakerAlg.MKTool.Serialiser          1   0     DEBUG xAOD::TrigCompositeAuxContainer#EgammaCaloDecisionsAux. Fragment size :672 bytes
HLTRMakerAlg.MKTool.Serialiser          1   0     DEBUG    Fragment size including 420 bytes from 2x DynAux : 1092
HLTRMakerAlg.MKTool.Serialiser          1   0     DEBUG xAOD::TrigCompositeContainer#ElectronL2Decisions Fragment size :176 bytes
HLTRMakerAlg.MKTool.Serialiser          1   0     DEBUG xAOD::TrigCompositeAuxContainer#ElectronL2DecisionsAux. Fragment size :2388 bytes
HLTRMakerAlg.MKTool.Serialiser          1   0     DEBUG    Fragment size including 896 bytes from 2x DynAux : 3284
HLTRMakerAlg.MKTool.Serialiser          1   0     DEBUG xAOD::TrigEMClusterContainer#HLT_xAOD__TrigEMClusterContainer_L2CaloClusters Fragment size :204 bytes
HLTRMakerAlg.MKTool.Serialiser          1   0     DEBUG xAOD::TrigEMClusterAuxContainer#HLT_xAOD__TrigEMClusterContainer_L2CaloClustersAux. Fragment size :1764 bytes
HLTRMakerAlg.MKTool.Serialiser          1   0     DEBUG    Fragment size including 100 bytes from 1x DynAux : 1864
HLTRMakerAlg.MKTool.Serialiser          1   0     DEBUG xAOD::TrigElectronContainer#HLT_xAOD__TrigElectronContainer_L2ElectronFex Fragment size :196 bytes
HLTRMakerAlg.MKTool.Serialiser          1   0     DEBUG xAOD::TrigElectronAuxContainer#HLT_xAOD__TrigElectronContainer_L2ElectronFexAux. Fragment size :3140 bytes
HLTRMakerAlg.MKTool.Serialiser          1   0     DEBUG    Fragment size including 2848 bytes from 14x DynAux : 5988
HLTRMakerAlg.MKTool.Serialiser          2   0     DEBUG xAOD::TrigCompositeContainer#EgammaCaloDecisions Fragment size :176 bytes
HLTRMakerAlg.MKTool.Serialiser          2   0     DEBUG xAOD::TrigCompositeAuxContainer#EgammaCaloDecisionsAux. Fragment size :852 bytes
HLTRMakerAlg.MKTool.Serialiser          2   0     DEBUG    Fragment size including 472 bytes from 2x DynAux : 1324
HLTRMakerAlg.MKTool.Serialiser          2   0     DEBUG xAOD::TrigCompositeContainer#ElectronL2Decisions Fragment size :176 bytes
HLTRMakerAlg.MKTool.Serialiser          2   0     DEBUG xAOD::TrigCompositeAuxContainer#ElectronL2DecisionsAux. Fragment size :2084 bytes
HLTRMakerAlg.MKTool.Serialiser          2   0     DEBUG    Fragment size including 836 bytes from 2x DynAux : 2920
HLTRMakerAlg.MKTool.Serialiser          2   0     DEBUG xAOD::TrigEMClusterContainer#HLT_xAOD__TrigEMClusterContainer_L2CaloClusters Fragment size :204 bytes
HLTRMakerAlg.MKTool.Serialiser          2   0     DEBUG xAOD::TrigEMClusterAuxContainer#HLT_xAOD__TrigEMClusterContainer_L2CaloClustersAux. Fragment size :2404 bytes
HLTRMakerAlg.MKTool.Serialiser          2   0     DEBUG    Fragment size including 108 bytes from 1x DynAux : 2512
HLTRMakerAlg.MKTool.Serialiser          2   0     DEBUG xAOD::TrigElectronContainer#HLT_xAOD__TrigElectronContainer_L2ElectronFex Fragment size :196 bytes
HLTRMakerAlg.MKTool.Serialiser          2   0     DEBUG xAOD::TrigElectronAuxContainer#HLT_xAOD__TrigElectronContainer_L2ElectronFexAux. Fragment size :2864 bytes
HLTRMakerAlg.MKTool.Serialiser          2   0     DEBUG    Fragment size including 2680 bytes from 14x DynAux : 5544
HLTRMakerAlg.MKTool.Serialiser          3   0     DEBUG xAOD::TrigCompositeContainer#EgammaCaloDecisions Fragment size :176 bytes
HLTRMakerAlg.MKTool.Serialiser          3   0     DEBUG xAOD::TrigCompositeAuxContainer#EgammaCaloDecisionsAux. Fragment size :660 bytes
HLTRMakerAlg.MKTool.Serialiser          3   0     DEBUG    Fragment size including 420 bytes from 2x DynAux : 1080
HLTRMakerAlg.MKTool.Serialiser          3   0     DEBUG xAOD::TrigCompositeContainer#ElectronL2Decisions Fragment size :176 bytes
HLTRMakerAlg.MKTool.Serialiser          3   0     DEBUG xAOD::TrigCompositeAuxContainer#ElectronL2DecisionsAux. Fragment size :2572 bytes
HLTRMakerAlg.MKTool.Serialiser          3   0     DEBUG    Fragment size including 1016 bytes from 2x DynAux : 3588
HLTRMakerAlg.MKTool.Serialiser          3   0     DEBUG xAOD::TrigEMClusterContainer#HLT_xAOD__TrigEMClusterContainer_L2CaloClusters Fragment size :204 bytes
HLTRMakerAlg.MKTool.Serialiser          3   0     DEBUG xAOD::TrigEMClusterAuxContainer#HLT_xAOD__TrigEMClusterContainer_L2CaloClustersAux. Fragment size :1764 bytes
HLTRMakerAlg.MKTool.Serialiser          3   0     DEBUG    Fragment size including 100 bytes from 1x DynAux : 1864
HLTRMakerAlg.MKTool.Serialiser          3   0     DEBUG xAOD::TrigElectronContainer#HLT_xAOD__TrigElectronContainer_L2ElectronFex Fragment size :196 bytes
HLTRMakerAlg.MKTool.Serialiser          3   0     DEBUG xAOD::TrigElectronAuxContainer#HLT_xAOD__TrigElectronContainer_L2ElectronFexAux. Fragment size :3692 bytes
HLTRMakerAlg.MKTool.Serialiser          3   0     DEBUG    Fragment size including 3184 bytes from 14x DynAux : 6876
HLTRMakerAlg.MKTool.Serialiser          4   0     DEBUG xAOD::TrigCompositeContainer#EgammaCaloDecisions Fragment size :176 bytes
HLTRMakerAlg.MKTool.Serialiser          4   0     DEBUG xAOD::TrigCompositeAuxContainer#EgammaCaloDecisionsAux. Fragment size :480 bytes
HLTRMakerAlg.MKTool.Serialiser          4   0     DEBUG    Fragment size including 368 bytes from 2x DynAux : 848
HLTRMakerAlg.MKTool.Serialiser          4   0     DEBUG xAOD::TrigCompositeContainer#ElectronL2Decisions Fragment size :176 bytes
HLTRMakerAlg.MKTool.Serialiser          4   0     DEBUG xAOD::TrigCompositeAuxContainer#ElectronL2DecisionsAux. Fragment size :1068 bytes
HLTRMakerAlg.MKTool.Serialiser          4   0     DEBUG    Fragment size including 536 bytes from 2x DynAux : 1604
HLTRMakerAlg.MKTool.Serialiser          4   0     DEBUG xAOD::TrigEMClusterContainer#HLT_xAOD__TrigEMClusterContainer_L2CaloClusters Fragment size :204 bytes
HLTRMakerAlg.MKTool.Serialiser          4   0     DEBUG xAOD::TrigEMClusterAuxContainer#HLT_xAOD__TrigEMClusterContainer_L2CaloClustersAux. Fragment size :1124 bytes
HLTRMakerAlg.MKTool.Serialiser          4   0     DEBUG    Fragment size including 92 bytes from 1x DynAux : 1216
HLTRMakerAlg.MKTool.Serialiser          4   0     DEBUG xAOD::TrigElectronContainer#HLT_xAOD__TrigElectronContainer_L2ElectronFex Fragment size :196 bytes
HLTRMakerAlg.MKTool.Serialiser          4   0     DEBUG xAOD::TrigElectronAuxContainer#HLT_xAOD__TrigElectronContainer_L2ElectronFexAux. Fragment size :1484 bytes
HLTRMakerAlg.MKTool.Serialiser          4   0     DEBUG    Fragment size including 1840 bytes from 14x DynAux : 3324
HLTRMakerAlg.MKTool.Serialiser          5   0     DEBUG xAOD::TrigCompositeContainer#EgammaCaloDecisions Fragment size :176 bytes
HLTRMakerAlg.MKTool.Serialiser          5   0     DEBUG xAOD::TrigCompositeAuxContainer#EgammaCaloDecisionsAux. Fragment size :940 bytes
HLTRMakerAlg.MKTool.Serialiser          5   0     DEBUG    Fragment size including 500 bytes from 2x DynAux : 1440
HLTRMakerAlg.MKTool.Serialiser          5   0     DEBUG xAOD::TrigCompositeContainer#ElectronL2Decisions Fragment size :176 bytes
HLTRMakerAlg.MKTool.Serialiser          5   0     DEBUG xAOD::TrigCompositeAuxContainer#ElectronL2DecisionsAux. Fragment size :5108 bytes
HLTRMakerAlg.MKTool.Serialiser          5   0     DEBUG    Fragment size including 1736 bytes from 2x DynAux : 6844
HLTRMakerAlg.MKTool.Serialiser          5   0     DEBUG xAOD::TrigEMClusterContainer#HLT_xAOD__TrigEMClusterContainer_L2CaloClusters Fragment size :204 bytes
HLTRMakerAlg.MKTool.Serialiser          5   0     DEBUG xAOD::TrigEMClusterAuxContainer#HLT_xAOD__TrigEMClusterContainer_L2CaloClustersAux. Fragment size :2724 bytes
HLTRMakerAlg.MKTool.Serialiser          5   0     DEBUG    Fragment size including 112 bytes from 1x DynAux : 2836
HLTRMakerAlg.MKTool.Serialiser          5   0     DEBUG xAOD::TrigElectronContainer#HLT_xAOD__TrigElectronContainer_L2ElectronFex Fragment size :196 bytes
HLTRMakerAlg.MKTool.Serialiser          5   0     DEBUG xAOD::TrigElectronAuxContainer#HLT_xAOD__TrigElectronContainer_L2ElectronFexAux. Fragment size :7004 bytes
HLTRMakerAlg.MKTool.Serialiser          5   0     DEBUG    Fragment size including 5200 bytes from 14x DynAux : 12204
HLTRMakerAlg.MKTool.Serialiser          6   0     DEBUG xAOD::TrigCompositeContainer#EgammaCaloDecisions Fragment size :176 bytes
HLTRMakerAlg.MKTool.Serialiser          6   0     DEBUG xAOD::TrigCompositeAuxContainer#EgammaCaloDecisionsAux. Fragment size :380 bytes
HLTRMakerAlg.MKTool.Serialiser          6   0     DEBUG    Fragment size including 344 bytes from 2x DynAux : 724
HLTRMakerAlg.MKTool.Serialiser          6   0     DEBUG xAOD::TrigCompositeContainer#ElectronL2Decisions Fragment size :176 bytes
HLTRMakerAlg.MKTool.Serialiser          6   0     DEBUG xAOD::TrigCompositeAuxContainer#ElectronL2DecisionsAux. Fragment size :552 bytes
HLTRMakerAlg.MKTool.Serialiser          6   0     DEBUG    Fragment size including 396 bytes from 2x DynAux : 948
HLTRMakerAlg.MKTool.Serialiser          6   0     DEBUG xAOD::TrigEMClusterContainer#HLT_xAOD__TrigEMClusterContainer_L2CaloClusters Fragment size :204 bytes
HLTRMakerAlg.MKTool.Serialiser          6   0     DEBUG xAOD::TrigEMClusterAuxContainer#HLT_xAOD__TrigEMClusterContainer_L2CaloClustersAux. Fragment size :804 bytes
HLTRMakerAlg.MKTool.Serialiser          6   0     DEBUG    Fragment size including 88 bytes from 1x DynAux : 892
HLTRMakerAlg.MKTool.Serialiser          6   0     DEBUG xAOD::TrigElectronContainer#HLT_xAOD__TrigElectronContainer_L2ElectronFex Fragment size :196 bytes
HLTRMakerAlg.MKTool.Serialiser          6   0     DEBUG xAOD::TrigElectronAuxContainer#HLT_xAOD__TrigElectronContainer_L2ElectronFexAux. Fragment size :840 bytes
HLTRMakerAlg.MKTool.Serialiser          6   0     DEBUG    Fragment size including 1448 bytes from 14x DynAux : 2288
HLTRMakerAlg.MKTool.Serialiser          7   0     DEBUG xAOD::TrigCompositeContainer#EgammaCaloDecisions Fragment size :176 bytes
HLTRMakerAlg.MKTool.Serialiser          7   0     DEBUG xAOD::TrigCompositeAuxContainer#EgammaCaloDecisionsAux. Fragment size :568 bytes
HLTRMakerAlg.MKTool.Serialiser          7   0     DEBUG    Fragment size including 396 bytes from 2x DynAux : 964
HLTRMakerAlg.MKTool.Serialiser          7   0     DEBUG xAOD::TrigCompositeContainer#ElectronL2Decisions Fragment size :176 bytes
HLTRMakerAlg.MKTool.Serialiser          7   0     DEBUG xAOD::TrigCompositeAuxContainer#ElectronL2DecisionsAux. Fragment size :1672 bytes
HLTRMakerAlg.MKTool.Serialiser          7   0     DEBUG    Fragment size including 716 bytes from 2x DynAux : 2388
HLTRMakerAlg.MKTool.Serialiser          7   0     DEBUG xAOD::TrigEMClusterContainer#HLT_xAOD__TrigEMClusterContainer_L2CaloClusters Fragment size :204 bytes
HLTRMakerAlg.MKTool.Serialiser          7   0     DEBUG xAOD::TrigEMClusterAuxContainer#HLT_xAOD__TrigEMClusterContainer_L2CaloClustersAux. Fragment size :1444 bytes
HLTRMakerAlg.MKTool.Serialiser          7   0     DEBUG    Fragment size including 96 bytes from 1x DynAux : 1540
HLTRMakerAlg.MKTool.Serialiser          7   0     DEBUG xAOD::TrigElectronContainer#HLT_xAOD__TrigElectronContainer_L2ElectronFex Fragment size :196 bytes
HLTRMakerAlg.MKTool.Serialiser          7   0     DEBUG xAOD::TrigElectronAuxContainer#HLT_xAOD__TrigElectronContainer_L2ElectronFexAux. Fragment size :2312 bytes
HLTRMakerAlg.MKTool.Serialiser          7   0     DEBUG    Fragment size including 2344 bytes from 14x DynAux : 4656
HLTRMakerAlg.MKTool.Serialiser          8   0     DEBUG xAOD::TrigCompositeContainer#EgammaCaloDecisions Fragment size :176 bytes
HLTRMakerAlg.MKTool.Serialiser          8   0     DEBUG xAOD::TrigCompositeAuxContainer#EgammaCaloDecisionsAux. Fragment size :488 bytes
HLTRMakerAlg.MKTool.Serialiser          8   0     DEBUG    Fragment size including 368 bytes from 2x DynAux : 856
HLTRMakerAlg.MKTool.Serialiser          8   0     DEBUG xAOD::TrigCompositeContainer#ElectronL2Decisions Fragment size :176 bytes
HLTRMakerAlg.MKTool.Serialiser          8   0     DEBUG xAOD::TrigCompositeAuxContainer#ElectronL2DecisionsAux. Fragment size :864 bytes
HLTRMakerAlg.MKTool.Serialiser          8   0     DEBUG    Fragment size including 476 bytes from 2x DynAux : 1340
HLTRMakerAlg.MKTool.Serialiser          8   0     DEBUG xAOD::TrigEMClusterContainer#HLT_xAOD__TrigEMClusterContainer_L2CaloClusters Fragment size :204 bytes
HLTRMakerAlg.MKTool.Serialiser          8   0     DEBUG xAOD::TrigEMClusterAuxContainer#HLT_xAOD__TrigEMClusterContainer_L2CaloClustersAux. Fragment size :1124 bytes
HLTRMakerAlg.MKTool.Serialiser          8   0     DEBUG    Fragment size including 92 bytes from 1x DynAux : 1216
HLTRMakerAlg.MKTool.Serialiser          8   0     DEBUG xAOD::TrigElectronContainer#HLT_xAOD__TrigElectronContainer_L2ElectronFex Fragment size :196 bytes
HLTRMakerAlg.MKTool.Serialiser          8   0     DEBUG xAOD::TrigElectronAuxContainer#HLT_xAOD__TrigElectronContainer_L2ElectronFexAux. Fragment size :1208 bytes
HLTRMakerAlg.MKTool.Serialiser          8   0     DEBUG    Fragment size including 1672 bytes from 14x DynAux : 2880
HLTRMakerAlg.MKTool.Serialiser          9   0     DEBUG xAOD::TrigCompositeContainer#EgammaCaloDecisions Fragment size :176 bytes
HLTRMakerAlg.MKTool.Serialiser          9   0     DEBUG xAOD::TrigCompositeAuxContainer#EgammaCaloDecisionsAux. Fragment size :288 bytes
HLTRMakerAlg.MKTool.Serialiser          9   0     DEBUG xAOD::TrigCompositeContainer#ElectronL2Decisions Fragment size :176 bytes
HLTRMakerAlg.MKTool.Serialiser          9   0     DEBUG xAOD::TrigCompositeAuxContainer#ElectronL2DecisionsAux. Fragment size :288 bytes
HLTRMakerAlg.MKTool.Serialiser          9   0     DEBUG xAOD::TrigEMClusterContainer#HLT_xAOD__TrigEMClusterContainer_L2CaloClusters Fragment size :204 bytes
HLTRMakerAlg.MKTool.Serialiser          9   0     DEBUG xAOD::TrigEMClusterAuxContainer#HLT_xAOD__TrigEMClusterContainer_L2CaloClustersAux. Fragment size :484 bytes
HLTRMakerAlg.MKTool.Serialiser          9   0     DEBUG xAOD::TrigElectronContainer#HLT_xAOD__TrigElectronContainer_L2ElectronFex Fragment size :196 bytes
HLTRMakerAlg.MKTool.Serialiser          9   0     DEBUG xAOD::TrigElectronAuxContainer#HLT_xAOD__TrigElectronContainer_L2ElectronFexAux. Fragment size :472 bytes
HLTRMakerAlg.MKTool.Serialiser          10  0     DEBUG xAOD::TrigCompositeContainer#EgammaCaloDecisions Fragment size :176 bytes
HLTRMakerAlg.MKTool.Serialiser          10  0     DEBUG xAOD::TrigCompositeAuxContainer#EgammaCaloDecisionsAux. Fragment size :692 bytes
HLTRMakerAlg.MKTool.Serialiser          10  0     DEBUG    Fragment size including 420 bytes from 2x DynAux : 1112
HLTRMakerAlg.MKTool.Serialiser          10  0     DEBUG xAOD::TrigCompositeContainer#ElectronL2Decisions Fragment size :176 bytes
HLTRMakerAlg.MKTool.Serialiser          10  0     DEBUG xAOD::TrigCompositeAuxContainer#ElectronL2DecisionsAux. Fragment size :2916 bytes
HLTRMakerAlg.MKTool.Serialiser          10  0     DEBUG    Fragment size including 1056 bytes from 2x DynAux : 3972
HLTRMakerAlg.MKTool.Serialiser          10  0     DEBUG xAOD::TrigEMClusterContainer#HLT_xAOD__TrigEMClusterContainer_L2CaloClusters Fragment size :204 bytes
HLTRMakerAlg.MKTool.Serialiser          10  0     DEBUG xAOD::TrigEMClusterAuxContainer#HLT_xAOD__TrigEMClusterContainer_L2CaloClustersAux. Fragment size :1764 bytes
HLTRMakerAlg.MKTool.Serialiser          10  0     DEBUG    Fragment size including 100 bytes from 1x DynAux : 1864
HLTRMakerAlg.MKTool.Serialiser          10  0     DEBUG xAOD::TrigElectronContainer#HLT_xAOD__TrigElectronContainer_L2ElectronFex Fragment size :196 bytes
HLTRMakerAlg.MKTool.Serialiser          10  0     DEBUG xAOD::TrigElectronAuxContainer#HLT_xAOD__TrigElectronContainer_L2ElectronFexAux. Fragment size :3876 bytes
HLTRMakerAlg.MKTool.Serialiser          10  0     DEBUG    Fragment size including 3296 bytes from 14x DynAux : 7172
HLTRMakerAlg.MKTool.Serialiser          11  0     DEBUG xAOD::TrigCompositeContainer#EgammaCaloDecisions Fragment size :176 bytes
HLTRMakerAlg.MKTool.Serialiser          11  0     DEBUG xAOD::TrigCompositeAuxContainer#EgammaCaloDecisionsAux. Fragment size :376 bytes
HLTRMakerAlg.MKTool.Serialiser          11  0     DEBUG    Fragment size including 344 bytes from 2x DynAux : 720
HLTRMakerAlg.MKTool.Serialiser          11  0     DEBUG xAOD::TrigCompositeContainer#ElectronL2Decisions Fragment size :176 bytes
HLTRMakerAlg.MKTool.Serialiser          11  0     DEBUG xAOD::TrigCompositeAuxContainer#ElectronL2DecisionsAux. Fragment size :416 bytes
HLTRMakerAlg.MKTool.Serialiser          11  0     DEBUG    Fragment size including 356 bytes from 2x DynAux : 772
HLTRMakerAlg.MKTool.Serialiser          11  0     DEBUG xAOD::TrigEMClusterContainer#HLT_xAOD__TrigEMClusterContainer_L2CaloClusters Fragment size :204 bytes
HLTRMakerAlg.MKTool.Serialiser          11  0     DEBUG xAOD::TrigEMClusterAuxContainer#HLT_xAOD__TrigEMClusterContainer_L2CaloClustersAux. Fragment size :804 bytes
HLTRMakerAlg.MKTool.Serialiser          11  0     DEBUG    Fragment size including 88 bytes from 1x DynAux : 892
HLTRMakerAlg.MKTool.Serialiser          11  0     DEBUG xAOD::TrigElectronContainer#HLT_xAOD__TrigElectronContainer_L2ElectronFex Fragment size :196 bytes
HLTRMakerAlg.MKTool.Serialiser          11  0     DEBUG xAOD::TrigElectronAuxContainer#HLT_xAOD__TrigElectronContainer_L2ElectronFexAux. Fragment size :656 bytes
HLTRMakerAlg.MKTool.Serialiser          11  0     DEBUG    Fragment size including 1336 bytes from 14x DynAux : 1992
HLTRMakerAlg.MKTool.Serialiser          12  0     DEBUG xAOD::TrigCompositeContainer#EgammaCaloDecisions Fragment size :176 bytes
HLTRMakerAlg.MKTool.Serialiser          12  0     DEBUG xAOD::TrigCompositeAuxContainer#EgammaCaloDecisionsAux. Fragment size :1064 bytes
HLTRMakerAlg.MKTool.Serialiser          12  0     DEBUG    Fragment size including 524 bytes from 2x DynAux : 1588
HLTRMakerAlg.MKTool.Serialiser          12  0     DEBUG xAOD::TrigCompositeContainer#ElectronL2Decisions Fragment size :176 bytes
HLTRMakerAlg.MKTool.Serialiser          12  0     DEBUG xAOD::TrigCompositeAuxContainer#ElectronL2DecisionsAux. Fragment size :4224 bytes
HLTRMakerAlg.MKTool.Serialiser          12  0     DEBUG    Fragment size including 1396 bytes from 2x DynAux : 5620
HLTRMakerAlg.MKTool.Serialiser          12  0     DEBUG xAOD::TrigEMClusterContainer#HLT_xAOD__TrigEMClusterContainer_L2CaloClusters Fragment size :204 bytes
HLTRMakerAlg.MKTool.Serialiser          12  0     DEBUG xAOD::TrigEMClusterAuxContainer#HLT_xAOD__TrigEMClusterContainer_L2CaloClustersAux. Fragment size :3044 bytes
HLTRMakerAlg.MKTool.Serialiser          12  0     DEBUG    Fragment size including 116 bytes from 1x DynAux : 3160
HLTRMakerAlg.MKTool.Serialiser          12  0     DEBUG xAOD::TrigElectronContainer#HLT_xAOD__TrigElectronContainer_L2ElectronFex Fragment size :196 bytes
HLTRMakerAlg.MKTool.Serialiser          12  0     DEBUG xAOD::TrigElectronAuxContainer#HLT_xAOD__TrigElectronContainer_L2ElectronFexAux. Fragment size :5440 bytes
HLTRMakerAlg.MKTool.Serialiser          12  0     DEBUG    Fragment size including 4248 bytes from 14x DynAux : 9688
HLTRMakerAlg.MKTool.Serialiser          13  0     DEBUG xAOD::TrigCompositeContainer#EgammaCaloDecisions Fragment size :176 bytes
HLTRMakerAlg.MKTool.Serialiser          13  0     DEBUG xAOD::TrigCompositeAuxContainer#EgammaCaloDecisionsAux. Fragment size :492 bytes
HLTRMakerAlg.MKTool.Serialiser          13  0     DEBUG    Fragment size including 368 bytes from 2x DynAux : 860
HLTRMakerAlg.MKTool.Serialiser          13  0     DEBUG xAOD::TrigCompositeContainer#ElectronL2Decisions Fragment size :176 bytes
HLTRMakerAlg.MKTool.Serialiser          13  0     DEBUG xAOD::TrigCompositeAuxContainer#ElectronL2DecisionsAux. Fragment size :2720 bytes
HLTRMakerAlg.MKTool.Serialiser          13  0     DEBUG    Fragment size including 936 bytes from 2x DynAux : 3656
HLTRMakerAlg.MKTool.Serialiser          13  0     DEBUG xAOD::TrigEMClusterContainer#HLT_xAOD__TrigEMClusterContainer_L2CaloClusters Fragment size :204 bytes
HLTRMakerAlg.MKTool.Serialiser          13  0     DEBUG xAOD::TrigEMClusterAuxContainer#HLT_xAOD__TrigEMClusterContainer_L2CaloClustersAux. Fragment size :1124 bytes
HLTRMakerAlg.MKTool.Serialiser          13  0     DEBUG    Fragment size including 92 bytes from 1x DynAux : 1216
HLTRMakerAlg.MKTool.Serialiser          13  0     DEBUG xAOD::TrigElectronContainer#HLT_xAOD__TrigElectronContainer_L2ElectronFex Fragment size :196 bytes
HLTRMakerAlg.MKTool.Serialiser          13  0     DEBUG xAOD::TrigElectronAuxContainer#HLT_xAOD__TrigElectronContainer_L2ElectronFexAux. Fragment size :3324 bytes
HLTRMakerAlg.MKTool.Serialiser          13  0     DEBUG    Fragment size including 2960 bytes from 14x DynAux : 6284
HLTRMakerAlg.MKTool.Serialiser          14  0     DEBUG xAOD::TrigCompositeContainer#EgammaCaloDecisions Fragment size :176 bytes
HLTRMakerAlg.MKTool.Serialiser          14  0     DEBUG xAOD::TrigCompositeAuxContainer#EgammaCaloDecisionsAux. Fragment size :380 bytes
HLTRMakerAlg.MKTool.Serialiser          14  0     DEBUG    Fragment size including 344 bytes from 2x DynAux : 724
HLTRMakerAlg.MKTool.Serialiser          14  0     DEBUG xAOD::TrigCompositeContainer#ElectronL2Decisions Fragment size :176 bytes
HLTRMakerAlg.MKTool.Serialiser          14  0     DEBUG xAOD::TrigCompositeAuxContainer#ElectronL2DecisionsAux. Fragment size :492 bytes
HLTRMakerAlg.MKTool.Serialiser          14  0     DEBUG    Fragment size including 376 bytes from 2x DynAux : 868
HLTRMakerAlg.MKTool.Serialiser          14  0     DEBUG xAOD::TrigEMClusterContainer#HLT_xAOD__TrigEMClusterContainer_L2CaloClusters Fragment size :204 bytes
HLTRMakerAlg.MKTool.Serialiser          14  0     DEBUG xAOD::TrigEMClusterAuxContainer#HLT_xAOD__TrigEMClusterContainer_L2CaloClustersAux. Fragment size :804 bytes
HLTRMakerAlg.MKTool.Serialiser          14  0     DEBUG    Fragment size including 88 bytes from 1x DynAux : 892
HLTRMakerAlg.MKTool.Serialiser          14  0     DEBUG xAOD::TrigElectronContainer#HLT_xAOD__TrigElectronContainer_L2ElectronFex Fragment size :196 bytes
HLTRMakerAlg.MKTool.Serialiser          14  0     DEBUG xAOD::TrigElectronAuxContainer#HLT_xAOD__TrigElectronContainer_L2ElectronFexAux. Fragment size :748 bytes
HLTRMakerAlg.MKTool.Serialiser          14  0     DEBUG    Fragment size including 1392 bytes from 14x DynAux : 2140
HLTRMakerAlg.MKTool.Serialiser          15  0     DEBUG xAOD::TrigCompositeContainer#EgammaCaloDecisions Fragment size :176 bytes
HLTRMakerAlg.MKTool.Serialiser          15  0     DEBUG xAOD::TrigCompositeAuxContainer#EgammaCaloDecisionsAux. Fragment size :288 bytes
HLTRMakerAlg.MKTool.Serialiser          15  0     DEBUG xAOD::TrigCompositeContainer#ElectronL2Decisions Fragment size :176 bytes
HLTRMakerAlg.MKTool.Serialiser          15  0     DEBUG xAOD::TrigCompositeAuxContainer#ElectronL2DecisionsAux. Fragment size :288 bytes
HLTRMakerAlg.MKTool.Serialiser          15  0     DEBUG xAOD::TrigEMClusterContainer#HLT_xAOD__TrigEMClusterContainer_L2CaloClusters Fragment size :204 bytes
HLTRMakerAlg.MKTool.Serialiser          15  0     DEBUG xAOD::TrigEMClusterAuxContainer#HLT_xAOD__TrigEMClusterContainer_L2CaloClustersAux. Fragment size :484 bytes
HLTRMakerAlg.MKTool.Serialiser          15  0     DEBUG xAOD::TrigElectronContainer#HLT_xAOD__TrigElectronContainer_L2ElectronFex Fragment size :196 bytes
HLTRMakerAlg.MKTool.Serialiser          15  0     DEBUG xAOD::TrigElectronAuxContainer#HLT_xAOD__TrigElectronContainer_L2ElectronFexAux. Fragment size :472 bytes
HLTRMakerAlg.MKTool.Serialiser          16  0     DEBUG xAOD::TrigCompositeContainer#EgammaCaloDecisions Fragment size :176 bytes
HLTRMakerAlg.MKTool.Serialiser          16  0     DEBUG xAOD::TrigCompositeAuxContainer#EgammaCaloDecisionsAux. Fragment size :372 bytes
HLTRMakerAlg.MKTool.Serialiser          16  0     DEBUG    Fragment size including 344 bytes from 2x DynAux : 716
HLTRMakerAlg.MKTool.Serialiser          16  0     DEBUG xAOD::TrigCompositeContainer#ElectronL2Decisions Fragment size :176 bytes
HLTRMakerAlg.MKTool.Serialiser          16  0     DEBUG xAOD::TrigCompositeAuxContainer#ElectronL2DecisionsAux. Fragment size :288 bytes
HLTRMakerAlg.MKTool.Serialiser          16  0     DEBUG xAOD::TrigEMClusterContainer#HLT_xAOD__TrigEMClusterContainer_L2CaloClusters Fragment size :204 bytes
HLTRMakerAlg.MKTool.Serialiser          16  0     DEBUG xAOD::TrigEMClusterAuxContainer#HLT_xAOD__TrigEMClusterContainer_L2CaloClustersAux. Fragment size :804 bytes
HLTRMakerAlg.MKTool.Serialiser          16  0     DEBUG    Fragment size including 88 bytes from 1x DynAux : 892
HLTRMakerAlg.MKTool.Serialiser          16  0     DEBUG xAOD::TrigElectronContainer#HLT_xAOD__TrigElectronContainer_L2ElectronFex Fragment size :196 bytes
HLTRMakerAlg.MKTool.Serialiser          16  0     DEBUG xAOD::TrigElectronAuxContainer#HLT_xAOD__TrigElectronContainer_L2ElectronFexAux. Fragment size :472 bytes
HLTRMakerAlg.MKTool.Serialiser          17  0     DEBUG xAOD::TrigCompositeContainer#EgammaCaloDecisions Fragment size :176 bytes
HLTRMakerAlg.MKTool.Serialiser          17  0     DEBUG xAOD::TrigCompositeAuxContainer#EgammaCaloDecisionsAux. Fragment size :492 bytes
HLTRMakerAlg.MKTool.Serialiser          17  0     DEBUG    Fragment size including 368 bytes from 2x DynAux : 860
HLTRMakerAlg.MKTool.Serialiser          17  0     DEBUG xAOD::TrigCompositeContainer#ElectronL2Decisions Fragment size :176 bytes
HLTRMakerAlg.MKTool.Serialiser          17  0     DEBUG xAOD::TrigCompositeAuxContainer#ElectronL2DecisionsAux. Fragment size :1444 bytes
HLTRMakerAlg.MKTool.Serialiser          17  0     DEBUG    Fragment size including 616 bytes from 2x DynAux : 2060
HLTRMakerAlg.MKTool.Serialiser          17  0     DEBUG xAOD::TrigEMClusterContainer#HLT_xAOD__TrigEMClusterContainer_L2CaloClusters Fragment size :204 bytes
HLTRMakerAlg.MKTool.Serialiser          17  0     DEBUG xAOD::TrigEMClusterAuxContainer#HLT_xAOD__TrigEMClusterContainer_L2CaloClustersAux. Fragment size :1124 bytes
HLTRMakerAlg.MKTool.Serialiser          17  0     DEBUG    Fragment size including 92 bytes from 1x DynAux : 1216
HLTRMakerAlg.MKTool.Serialiser          17  0     DEBUG xAOD::TrigElectronContainer#HLT_xAOD__TrigElectronContainer_L2ElectronFex Fragment size :196 bytes
HLTRMakerAlg.MKTool.Serialiser          17  0     DEBUG xAOD::TrigElectronAuxContainer#HLT_xAOD__TrigElectronContainer_L2ElectronFexAux. Fragment size :1852 bytes
HLTRMakerAlg.MKTool.Serialiser          17  0     DEBUG    Fragment size including 2064 bytes from 14x DynAux : 3916
HLTRMakerAlg.MKTool.Serialiser          18  0     DEBUG xAOD::TrigCompositeContainer#EgammaCaloDecisions Fragment size :176 bytes
HLTRMakerAlg.MKTool.Serialiser          18  0     DEBUG xAOD::TrigCompositeAuxContainer#EgammaCaloDecisionsAux. Fragment size :488 bytes
HLTRMakerAlg.MKTool.Serialiser          18  0     DEBUG    Fragment size including 368 bytes from 2x DynAux : 856
HLTRMakerAlg.MKTool.Serialiser          18  0     DEBUG xAOD::TrigCompositeContainer#ElectronL2Decisions Fragment size :176 bytes
HLTRMakerAlg.MKTool.Serialiser          18  0     DEBUG xAOD::TrigCompositeAuxContainer#ElectronL2DecisionsAux. Fragment size :552 bytes
HLTRMakerAlg.MKTool.Serialiser          18  0     DEBUG    Fragment size including 396 bytes from 2x DynAux : 948
HLTRMakerAlg.MKTool.Serialiser          18  0     DEBUG xAOD::TrigEMClusterContainer#HLT_xAOD__TrigEMClusterContainer_L2CaloClusters Fragment size :204 bytes
HLTRMakerAlg.MKTool.Serialiser          18  0     DEBUG xAOD::TrigEMClusterAuxContainer#HLT_xAOD__TrigEMClusterContainer_L2CaloClustersAux. Fragment size :1124 bytes
HLTRMakerAlg.MKTool.Serialiser          18  0     DEBUG    Fragment size including 92 bytes from 1x DynAux : 1216
HLTRMakerAlg.MKTool.Serialiser          18  0     DEBUG xAOD::TrigElectronContainer#HLT_xAOD__TrigElectronContainer_L2ElectronFex Fragment size :196 bytes
HLTRMakerAlg.MKTool.Serialiser          18  0     DEBUG xAOD::TrigElectronAuxContainer#HLT_xAOD__TrigElectronContainer_L2ElectronFexAux. Fragment size :840 bytes
HLTRMakerAlg.MKTool.Serialiser          18  0     DEBUG    Fragment size including 1448 bytes from 14x DynAux : 2288
HLTRMakerAlg.MKTool.Serialiser          19  0     DEBUG xAOD::TrigCompositeContainer#EgammaCaloDecisions Fragment size :176 bytes
HLTRMakerAlg.MKTool.Serialiser          19  0     DEBUG xAOD::TrigCompositeAuxContainer#EgammaCaloDecisionsAux. Fragment size :560 bytes
HLTRMakerAlg.MKTool.Serialiser          19  0     DEBUG    Fragment size including 396 bytes from 2x DynAux : 956
HLTRMakerAlg.MKTool.Serialiser          19  0     DEBUG xAOD::TrigCompositeContainer#ElectronL2Decisions Fragment size :176 bytes
HLTRMakerAlg.MKTool.Serialiser          19  0     DEBUG xAOD::TrigCompositeAuxContainer#ElectronL2DecisionsAux. Fragment size :3980 bytes
HLTRMakerAlg.MKTool.Serialiser          19  0     DEBUG    Fragment size including 1436 bytes from 2x DynAux : 5416
HLTRMakerAlg.MKTool.Serialiser          19  0     DEBUG xAOD::TrigEMClusterContainer#HLT_xAOD__TrigEMClusterContainer_L2CaloClusters Fragment size :204 bytes
HLTRMakerAlg.MKTool.Serialiser          19  0     DEBUG xAOD::TrigEMClusterAuxContainer#HLT_xAOD__TrigEMClusterContainer_L2CaloClustersAux. Fragment size :1444 bytes
HLTRMakerAlg.MKTool.Serialiser          19  0     DEBUG    Fragment size including 96 bytes from 1x DynAux : 1540
HLTRMakerAlg.MKTool.Serialiser          19  0     DEBUG xAOD::TrigElectronContainer#HLT_xAOD__TrigElectronContainer_L2ElectronFex Fragment size :196 bytes
HLTRMakerAlg.MKTool.Serialiser          19  0     DEBUG xAOD::TrigElectronAuxContainer#HLT_xAOD__TrigElectronContainer_L2ElectronFexAux. Fragment size :5624 bytes
HLTRMakerAlg.MKTool.Serialiser          19  0     DEBUG    Fragment size including 4360 bytes from 14x DynAux : 9984
TrigSignatureMoniMT                                INFO HLT_2e3_etcut                 20        10        6         5         5         
TrigSignatureMoniMT                                INFO HLT_2e3_etcut decisions                           16        100       
TrigSignatureMoniMT                                INFO HLT_e3_e5_etcut               20        20        12        11        11        
TrigSignatureMoniMT                                INFO HLT_e3_e5_etcut decisions                         46        279       
TrigSignatureMoniMT                                INFO HLT_e3_etcut                  20        9         8         8         8         
TrigSignatureMoniMT                                INFO HLT_e3_etcut decisions                            22        140       
TrigSignatureMoniMT                                INFO HLT_e5_etcut                  20        20        17        17        17        
TrigSignatureMoniMT                                INFO HLT_e5_etcut decisions                            52        333       
TrigSignatureMoniMT                                INFO HLT_e7_etcut                  20        20        11        11        11        
TrigSignatureMoniMT                                INFO HLT_e7_etcut decisions                            17        173       
